Part_3.r
…
AI: Earth spike in positive from large decrease in anger, small increase in joy

decrease in anticipation as well.

AI: Earth seems bereft in sentiments in general besides joy and sadness AI: Fire seems to have untrendly amount of FEAR: lets take a closer look!

nrcfear <- get_sentiments("nrc") %>% 
  filter(sentiment == "fear")

tidy_lyrics %>% 
  filter(album == "The Alchemy Index Fire") %>% 
  inner_join(nrcfear) %>% 
  count(word, sort = TRUE)

## # A tibble: 23 x 2
##        word     n
##       <chr> <int>
##  1     fire    10
##  2     fear     4
##  3   buried     2
##  4      die     2
##  5  gallows     2
##  6 hardened     2
##  7    armor     1
##  8    awful     1
##  9    curse     1
## 10    death     1
## # ... with 13 more rows
…
# appears only in 4 words!
# in other AI albums appear much more frequently!

tidy_lyrics %>% 
  filter(str_detect(album, "The Alchemy")) %>% 
  inner_join(nrc_anger) %>% 
  count(album, title, word, sort = TRUE)

## # A tibble: 44 x 4
##                     album              title     word     n
##                    <fctr>              <chr>    <chr> <int>
##  1  The Alchemy Index Air The Sky Is Falling     hate     5
##  2  The Alchemy Index Air The Sky Is Falling     fear     3
##  3 The Alchemy Index Fire       Firebreather     fear     2
##  4 The Alchemy Index Fire       Firebreather  gallows     2
##  5 The Alchemy Index Fire       The Arsonist    stone     2
##  6 The Alchemy Index Fire          Backdraft     lose     1
##  7 The Alchemy Index Fire     Burn The Fleet     fear     1
##  8 The Alchemy Index Fire       The Arsonist hardened     1
##  9 The Alchemy Index Fire   The Flame Deluge    awful     1
## 10 The Alchemy Index Fire   The Flame Deluge    curse     1
## # ... with 34 more rows
…
biGrams <- df %>% 
  select(album, title, year, lyrics) %>% 
  mutate(lyrics = iconv(lyrics, to = 'latin1')) %>% 
  # convert to ASCII for better separation into ngrams
  unnest_tokens(line, lyrics, token = stringr::str_split, pattern = ' <br>') %>%   
  # split lines on the <br> tags
  unnest_tokens(ngram, line, token = "ngrams", n = 2)

biGrams_sep <- biGrams %>% 
  separate(ngram, c("word1", "word2"), sep = "[^-'\\w]")  

biGrams_sep

## # A tibble: 18,657 x 5
##              album                      title  year     word1     word2
##  *          <fctr>                      <chr> <int>     <chr>     <chr>
##  1 Identity Crisis A Torch To End All Torches  2000 misguided satellite
##  2 Identity Crisis A Torch To End All Torches  2000 satellite         i
##  3 Identity Crisis A Torch To End All Torches  2000         i    circle
##  4 Identity Crisis A Torch To End All Torches  2000    circle        by
##  5 Identity Crisis A Torch To End All Torches  2000        by     habit
##  6 Identity Crisis A Torch To End All Torches  2000     habit     can't
##  7 Identity Crisis A Torch To End All Torches  2000     can't      find
##  8 Identity Crisis A Torch To End All Torches  2000      find        my
##  9 Identity Crisis A Torch To End All Torches  2000        my     orbit
## 10 Identity Crisis A Torch To End All Torches  2000     orbit        to
## # ... with 18,647 more rows
…
Solution:

Sum up the scores for both word1 and word2 as the overall sentiment score and then visualize?

biGrams_sep %>% 
  select(word1, word2) %>% 
  filter(word1 %in% negation_words) %>% 
  inner_join(get_sentiments("bing"), by = c(word2 = "word")) #%>% 

## # A tibble: 33 x 3
##    word1   word2 sentiment
##    <chr>   <chr>     <chr>
##  1    no regrets  negative
##  2    no    evil  negative
##  3    no   magic  positive
##  4    no   magic  positive
##  5    no    evil  negative
##  6   not   break  negative
##  7    no   faith  positive
##  8   not   taboo  negative
##  9   not   taboo  negative
## 10   not    love  positive
## # ... with 23 more rows
…
