thrice_initial_looks.r
…
Major/Minor and Vheissu are longest albums, both totalling up to a bit over 49 mins!

How about the length of each song?

df %>% 
  group_by(title, album) %>% 
  summarise(duration = as.duration(sum(lengthS))) %>% 
  arrange(desc(duration))

## # A tibble: 103 x 3
## # Groups:   title [103]
##                          title                              album
##                          <chr>                             <fctr>
##  1          Words In The Water                        Major Minor
##  2             Salt And Shadow To Be Everywhere And To Be Nowhere
##  3                Night Diving            The Alchemy Index Water
##  4                    Daedalus              The Alchemy Index Air
##  5   Stand And Feel Your Worth                            Vheissu
##  6                     Beggars                            Beggars
##  7 A Song For Milly Michaelson              The Alchemy Index Air
##  8                  The Weight                            Beggars
##  9     The Earth Isn't Humming            The Alchemy Index Earth
## 10         Kings Upon The Main            The Alchemy Index Water
## # ... with 93 more rows, and 1 more variables: duration <S4: Duration>
…
df %>% 
  group_by(title) %>% 
  summarise(duration_song = seconds_to_period(sum(lengthS))) %>% 
  arrange(desc(duration_song))

## # A tibble: 103 x 2
##                               title duration_song
##                               <chr>  <S4: Period>
##  1             All The World Is Mad        3M 59S
##  2                      Black Honey           59S
##  3      Don't Tell And We Won't Ask           59S
##  4                     Paper Tigers           59S
##  5                  Identity Crisis           58S
##  6          The Earth Isn't Humming           58S
##  7                     Yellow Belly           58S
##  8                     The Next Day           57S
##  9 Between The End And Where We Lie           56S
## 10              Kings Upon The Main           56S
## # ... with 93 more rows
…
