…
```r
# song lengths
song_lengths <- df %>% 
  group_by(title, album) %>% 
  summarise(duration = as.duration(sum(lengthS)))

song_lengths %>% arrange(desc(duration))
```

```
## # A tibble: 103 x 3
## # Groups:   title [103]
##                          title                              album
##                          <chr>                             <fctr>
##  1          Words In The Water                        Major Minor
##  2             Salt And Shadow To Be Everywhere And To Be Nowhere
##  3                Night Diving            The Alchemy Index Water
##  4                    Daedalus              The Alchemy Index Air
##  5   Stand And Feel Your Worth                            Vheissu
##  6                     Beggars                            Beggars
##  7 A Song For Milly Michaelson              The Alchemy Index Air
##  8                  The Weight                            Beggars
##  9     The Earth Isn't Humming            The Alchemy Index Earth
## 10         Kings Upon The Main            The Alchemy Index Water
## # ... with 93 more rows, and 1 more variables: duration <S4: Duration>
```
…
```r
df %>% 
  group_by(title) %>% 
  summarise(duration_song = as.duration(sum(lengthS)))
```

```
## # A tibble: 103 x 2
##                             title        duration_song
##                             <chr>       <S4: Duration>
##  1 A Living Dance Upon Dead Minds 212s (~3.53 minutes)
##  2    A Song For Milly Michaelson 307s (~5.12 minutes)
##  3                A Subtle Dagger  108s (~1.8 minutes)
##  4     A Torch To End All Torches 250s (~4.17 minutes)
##  5                All That's Left 200s (~3.33 minutes)
##  6           All The World Is Mad 239s (~3.98 minutes)
##  7                      Anthology  264s (~4.4 minutes)
##  8              As The Crow Flies 142s (~2.37 minutes)
##  9              As The Ruin Falls 124s (~2.07 minutes)
## 10                    At The Last 245s (~4.08 minutes)
## # ... with 93 more rows
```
…
