Part2.r
…
# 'the' is most common....

What are stop words? Stop words are and in the tidytext package they are populated from the onix, SMART, and snowball lexicons. For more information see here!

# Include stop_words ------------------------------------------------------

data("stop_words")
stop_words         # data base of "stop words" to clean unigrams.

## # A tibble: 1,149 x 2
##           word lexicon
##          <chr>   <chr>
##  1           a   SMART
##  2         a's   SMART
##  3        able   SMART
##  4       about   SMART
##  5       above   SMART
##  6   according   SMART
##  7 accordingly   SMART
##  8      across   SMART
##  9    actually   SMART
## 10       after   SMART
## # ... with 1,139 more rows
…
words per song?

df %>% group_by(title) %>% 
  select(title, album, numWord) %>% 
  arrange(desc(numWord))    

## # A tibble: 103 x 3
## # Groups:   title [103]
##                          title                              album numWord
##                          <chr>                             <fctr>   <dbl>
##  1                  The Weight                            Beggars     421
##  2                 Black Honey To Be Everywhere And To Be Nowhere     410
##  3                     Wake Up To Be Everywhere And To Be Nowhere     342
##  4                Stay With Me To Be Everywhere And To Be Nowhere     326
##  5                   Under Par                    Identity Crisis     325
##  6          The Sky Is Falling              The Alchemy Index Air     321
##  7                The Arsonist             The Alchemy Index Fire     317
##  8           Blood On The Sand To Be Everywhere And To Be Nowhere     309
##  9                 Doublespeak                            Beggars     306
## 10 The Artist In The Ambulance        The Artist In The Ambulance     305
## # ... with 93 more rows

The Weight has the most words, however the df dataset >>> (all incl. stop words) also includes 
 though

need to use wordToken instead of df or wordToken2 as stop_words should be included for sum

wordToken %>% 
  select(title, word) %>% 
  group_by(title) %>% 
  summarize(num_word = n()) %>% 
  arrange(desc(num_word))

## # A tibble: 100 x 2
##                          title num_word
##                          <chr>    <int>
##  1                  The Weight      383
##  2                 Black Honey      365
##  3                     Wake Up      297
##  4                   Under Par      293
##  5                Stay With Me      292
##  6                The Arsonist      284
##  7          The Sky Is Falling      281
##  8           Blood On The Sand      280
##  9 The Artist In The Ambulance      279
## 10                    Daedalus      273
## # ... with 90 more rows
…
##   num_word
## 1      383

# 383

# most frequent word in each song ####
wordToken2 %>% 
  group_by(title) %>% 
  count(word) %>% 
  arrange(desc(n))

## # A tibble: 4,186 x 3
## # Groups:   title [100]
##                               title      word     n
##                               <chr>     <chr> <int>
##  1                      Black Honey      ill    20
##  2                          Wake Up     gotta    17
##  3                          Wake Up      wake    17
##  4                     Yellow Belly     dont    16
##  5                       The Weight     wont    15
##  6           Image Of The Invisible     image    13
##  7           Image Of The Invisible invisible    13
##  8          The Earth Isn't Humming      fall    13
##  9                Blood On The Sand      sick    12
## 10 Between The End And Where We Lie  daylight    11
## # ... with 4,176 more rows
…
image and invisible in Image of the Invisible >>> given as shouted out during the chorus numerous

times in the song To consider: skewed toward phrases repeated in chorus!

# WordsPerNoStop
df %>%
  mutate(lyrics = str_replace_all(lyrics, '\'', ' ')) %>%
  unnest_tokens(line, lyrics, token = stringr::str_split, pattern = ' <br>') %>% 
  unnest_tokens(word, line) %>%
  anti_join(stop_words) %>%           # filter stop words
  group_by(title) %>% 
  summarize(wordcounts = n()) %>% 
  arrange(desc(wordcounts))

## # A tibble: 100 x 2
##                               title wordcounts
##                               <chr>      <int>
##  1                       The Weight        120
##  2                      Doublespeak        116
##  3   A Living Dance Upon Dead Minds        112
##  4                      Black Honey        107
##  5                   Hold Fast Hope        107
##  6      The Artist In The Ambulance        106
##  7                 Stare At The Sun        103
##  8 Between The End And Where We Lie         99
##  9                          Wake Up         99
## 10        So Strange I Remember You         95
## # ... with 90 more rows
…
# most frequent unigrams per album: ####
# nested on albums!

word_count_nested <- wordToken2 %>% 
  group_by(album, word) %>% 
  summarize(count = n()) %>% 
  top_n(10) %>% 
  arrange(album, desc(count)) %>% 
  nest() 

word_count_nested$data[[1]]

## # A tibble: 21 x 2
##     word count
##    <chr> <int>
##  1 heart    12
##  2  eyes     8
##  3  life     6
##  4 light     6
##  5   cry     5
##  6 faith     5
##  7  soul     5
##  8  true     5
##  9   day     4
## 10  deep     4
## # ... with 11 more rows
…
